{"count": 200, "next": "https://cryptopanic.com/api/free/v1/posts/?auth_token=5d3efdf3405c86e637926d16c630b32483628a26&page=2", "previous": null, "results": [{"kind": "news", "domain": "tokenist.com", "source": {"title": "tokenist", "region": "en", "domain": "tokenist.com", "path": null, "type": "feed"}, "title": "Quantum Stocks Update: Potential Winners and Losers in 2025", "published_at": "2025-03-27T15:24:13Z", "slug": "Quantum-Stocks-Update-Potential-Winners-and-Losers-in-2025", "currencies": [{"code": "D", "title": "Dar Open Network", "slug": "dar-open-network", "url": "https://cryptopanic.com/news/dar-open-network/"}], "id": 20883899, "url": "https://cryptopanic.com/news/20883899/Quantum-Stocks-Update-Potential-Winners-and-Losers-in-2025?mtm_campaign=API-OFA", "created_at": "2025-03-27T15:24:13Z", "votes": {"negative": 0, "positive": 0, "important": 0, "liked": 0, "disliked": 0, "lol": 0, "toxic": 0, "saved": 0, "comments": 0}}, {"kind": "news", "domain": "cointrackdaily.com", "source": {"title": "cointrack daily", "region": "en", "domain": "cointrackdaily.com", "path": null, "type": "feed"}, "title": "Dogecoin (DOGE) jumps 10% in 24 hours but faces key resistance at $0.21378", "published_at": "2025-03-27T15:21:21Z", "slug": "Dogecoin-DOGE-jumps-10-in-24-hours-but-faces-key-resistance-at-021378", "currencies": [{"code": "DOGE", "title": "Dogecoin", "slug": "dogecoin", "url": "https://cryptopanic.com/news/dogecoin/"}], "id": 20883898, "url": "https://cryptopanic.com/news/20883898/Dogecoin-DOGE-jumps-10-in-24-hours-but-faces-key-resistance-at-021378?mtm_campaign=API-OFA", "created_at": "2025-03-27T15:21:21Z", "votes": {"negative": 0, "positive": 0, "important": 0, "liked": 0, "disliked": 0, "lol": 0, "toxic": 0, "saved": 0, "comments": 0}}, {"kind": "news", "domain": "crypto-economy.com", "source": {"title": "Crypto Economy", "region": "en", "domain": "crypto-economy.com", "path": null, "type": "feed"}, "title": "AAA Play-to-Earn Game Illuvium Announces One of its Most Significant Updates: The Fuel Migration", "published_at": "2025-03-27T15:20:22Z", "slug": "AAA-Play-to-Earn-Game-Illuvium-Announces-One-of-its-Most-Significant-Updates-The-Fuel-Migration", "currencies": [{"code": "ETH", "title": "Ethereum", "slug": "ethereum", "url": "https://cryptopanic.com/news/ethereum/"}], "id": 20883894, "url": "https://cryptopanic.com/news/20883894/AAA-Play-to-Earn-Game-Illuvium-Announces-One-of-its-Most-Significant-Updates-The-Fuel-Migration?mtm_campaign=API-OFA", "created_at": "2025-03-27T15:20:22Z", "votes": {"negative": 0, "positive": 0, "important": 0, "liked": 0, "disliked": 0, "lol": 0, "toxic": 0, "saved": 0, "comments": 0}}, {"kind": "news", "domain": "cryptopolitan.com", "source": {"title": "Feed - Cryptopolitan.Com", "region": "en", "domain": "cryptopolitan.com", "path": null, "type": "feed"}, "title": "SBF moved from NYC jail to Oklahoma prison to start serving 25-year sentence", "published_at": "2025-03-27T15:17:59Z", "slug": "SBF-moved-from-NYC-jail-to-Oklahoma-prison-to-start-serving-25-year-sentence", "id": 20883871, "url": "https://cryptopanic.com/news/20883871/SBF-moved-from-NYC-jail-to-Oklahoma-prison-to-start-serving-25-year-sentence?mtm_campaign=API-OFA", "created_at": "2025-03-27T15:17:59Z", "votes": {"negative": 0, "positive": 0, "important": 0, "liked": 0, "disliked": 0, "lol": 0, "toxic": 0, "saved": 0, "comments": 0}}, {"kind": "news", "domain": "u.today", "source": {"title": "U.Today", "region": "en", "domain": "u.today", "path": null, "type": "feed"}, "title": "Peter Schiff Reacts to Bitcoin's Drop as Gold Sets Fresh Record High", "published_at": "2025-03-27T15:13:00Z", "slug": "Peter-Schiff-Reacts-to-Bitcoins-Drop-as-Gold-Sets-Fresh-Record-High", "currencies": [{"code": "BTC", "title": "Bitcoin", "slug": "bitcoin", "url": "https://cryptopanic.com/news/bitcoin/"}], "id": 20883836, "url": "https://cryptopanic.com/news/20883836/Peter-Schiff-Reacts-to-Bitcoins-Drop-as-Gold-Sets-Fresh-Record-High?mtm_campaign=API-OFA", "created_at": "2025-03-27T15:13:00Z", "votes": {"negative": 0, "positive": 0, "important": 0, "liked": 0, "disliked": 0, "lol": 0, "toxic": 0, "saved": 0, "comments": 0}}, {"kind": "news", "domain": "cointrackdaily.com", "source": {"title": "cointrack daily", "region": "en", "domain": "cointrackdaily.com", "path": null, "type": "feed"}, "title": "AI-driven memecoin \u2018GHIBLI\u2019 surges amid OpenAI and Elon Musk hype", "published_at": "2025-03-27T15:12:53Z", "slug": "AI-driven-memecoin-GHIBLI-surges-amid-OpenAI-and-Elon-Musk-hype", "currencies": [{"code": "SOL", "title": "Solana", "slug": "solana", "url": "https://cryptopanic.com/news/solana/"}, {"code": "GHIBLI", "title": "Ghiblification", "slug": "ghiblification", "url": "https://cryptopanic.com/news/ghiblification/"}], "id": 20883838, "url": "https://cryptopanic.com/news/20883838/AI-driven-memecoin-GHIBLI-surges-amid-OpenAI-and-Elon-Musk-hype?mtm_campaign=API-OFA", "created_at": "2025-03-27T15:12:53Z", "votes": {"negative": 0, "positive": 0, "important": 0, "liked": 0, "disliked": 0, "lol": 0, "toxic": 0, "saved": 0, "comments": 0}}, {"kind": "news", "domain": "cryptopolitan.com", "source": {"title": "Feed - Cryptopolitan.Com", "region": "en", "domain": "cryptopolitan.com", "path": null, "type": "feed"}, "title": "GameStop stock erases Wednesday\u2019s gains after being S&P 500\u2019s best performer", "published_at": "2025-03-27T15:11:22Z", "slug": "GameStop-stock-erases-Wednesdays-gains-after-being-SP-500s-best-performer", "currencies": [{"code": "BTC", "title": "Bitcoin", "slug": "bitcoin", "url": "https://cryptopanic.com/news/bitcoin/"}, {"code": "S", "title": "Sonic (prev. FTM)", "slug": "sonic-3", "url": "https://cryptopanic.com/news/sonic-3/"}], "id": 20883813, "url": "https://cryptopanic.com/news/20883813/GameStop-stock-erases-Wednesdays-gains-after-being-SP-500s-best-performer?mtm_campaign=API-OFA", "created_at": "2025-03-27T15:11:22Z", "votes": {"negative": 0, "positive": 0, "important": 0, "liked": 0, "disliked": 0, "lol": 0, "toxic": 0, "saved": 0, "comments": 0}}, {"kind": "news", "domain": "cryptobriefing.com", "source": {"title": "CryptoBriefing", "region": "en", "domain": "cryptobriefing.com", "path": null, "type": "feed"}, "title": "Africa\u2019s fintech innovator taps Ripple to provide round-the-clock fund transfers", "published_at": "2025-03-27T15:05:39Z", "slug": "Africas-fintech-innovator-taps-Ripple-to-provide-round-the-clock-fund-transfers", "id": 20883795, "url": "https://cryptopanic.com/news/20883795/Africas-fintech-innovator-taps-Ripple-to-provide-round-the-clock-fund-transfers?mtm_campaign=API-OFA", "created_at": "2025-03-27T15:05:39Z", "votes": {"negative": 0, "positive": 0, "important": 0, "liked": 0, "disliked": 0, "lol": 0, "toxic": 0, "saved": 0, "comments": 0}}, {"kind": "news", "domain": "thedefiant.io", "source": {"title": "DeFi News", "region": "en", "domain": "thedefiant.io", "path": null, "type": "feed"}, "title": "Sam Bankman-Fried Transferred from New York Federal Jail to Oklahoma City FTC After Unsanctioned Tucker Carlson Interview", "published_at": "2025-03-27T15:05:07Z", "slug": "Sam-Bankman-Fried-Transferred-from-New-York-Federal-Jail-to-Oklahoma-City-FTC-After-Unsanctioned-Tucker-Carlson-Interview", "id": 20883792, "url": "https://cryptopanic.com/news/20883792/Sam-Bankman-Fried-Transferred-from-New-York-Federal-Jail-to-Oklahoma-City-FTC-After-Unsanctioned-Tucker-Carlson-Interview?mtm_campaign=API-OFA", "created_at": "2025-03-27T15:05:07Z", "votes": {"negative": 0, "positive": 0, "important": 0, "liked": 0, "disliked": 0, "lol": 0, "toxic": 0, "saved": 0, "comments": 0}}, {"kind": "news", "domain": "thedefiant.io", "source": {"title": "DeFi News", "region": "en", "domain": "thedefiant.io", "path": null, "type": "feed"}, "title": "The Blockchain Group Acquires 580 Bitcoin for \u20ac47.3 Million, Total Holdings Reach 620 BTC Valued at \u20ac50.5 Million with 709.8% YTD Yield", "published_at": "2025-03-27T15:05:07Z", "slug": "The-Blockchain-Group-Acquires-580-Bitcoin-for-473-Million-Total-Holdings-Reach-620-BTC-Valued-at-505-Million-with-7098-YTD-Yield", "currencies": [{"code": "BTC", "title": "Bitcoin", "slug": "bitcoin", "url": "https://cryptopanic.com/news/bitcoin/"}], "id": 20883793, "url": "https://cryptopanic.com/news/20883793/The-Blockchain-Group-Acquires-580-Bitcoin-for-473-Million-Total-Holdings-Reach-620-BTC-Valued-at-505-Million-with-7098-YTD-Yield?mtm_campaign=API-OFA", "created_at": "2025-03-27T15:05:07Z", "votes": {"negative": 0, "positive": 0, "important": 0, "liked": 0, "disliked": 0, "lol": 0, "toxic": 0, "saved": 0, "comments": 0}}, {"kind": "news", "domain": "tokenist.com", "source": {"title": "tokenist", "region": "en", "domain": "tokenist.com", "path": null, "type": "feed"}, "title": "Analysts Believe Tesla is Insulated from New Auto Tariffs", "published_at": "2025-03-27T15:04:23Z", "slug": "Analysts-Believe-Tesla-is-Insulated-from-New-Auto-Tariffs", "id": 20883744, "url": "https://cryptopanic.com/news/20883744/Analysts-Believe-Tesla-is-Insulated-from-New-Auto-Tariffs?mtm_campaign=API-OFA", "created_at": "2025-03-27T15:04:23Z", "votes": {"negative": 0, "positive": 0, "important": 0, "liked": 0, "disliked": 0, "lol": 0, "toxic": 0, "saved": 0, "comments": 0}}, {"kind": "news", "domain": "ambcrypto.com", "source": {"title": "AMBCrypto", "region": "en", "domain": "ambcrypto.com", "path": null, "type": "feed"}, "title": "PEPE \u2013 Will whale interest reverse the memecoin\u2019s 60% loss?", "published_at": "2025-03-27T15:00:57Z", "slug": "PEPE-Will-whale-interest-reverse-the-memecoins-60-loss", "currencies": [{"code": "PEPE", "title": "Pepe", "slug": "pepe", "url": "https://cryptopanic.com/news/pepe/"}, {"code": "MEME", "title": "Memecoin", "slug": "memecoin-2", "url": "https://cryptopanic.com/news/memecoin-2/"}, {"code": "$1", "title": "just buy $1 worth of this coin", "slug": "just-buy-1-worth-of-this-coin", "url": "https://cryptopanic.com/news/just-buy-1-worth-of-this-coin/"}], "id": 20883728, "url": "https://cryptopanic.com/news/20883728/PEPE-Will-whale-interest-reverse-the-memecoins-60-loss?mtm_campaign=API-OFA", "created_at": "2025-03-27T15:00:57Z", "votes": {"negative": 0, "positive": 0, "important": 0, "liked": 0, "disliked": 0, "lol": 0, "toxic": 0, "saved": 0, "comments": 0}}, {"kind": "news", "domain": "feeds2.benzinga.com", "source": {"title": "Benzinga", "region": "en", "domain": "feeds2.benzinga.com", "path": null, "type": "feed"}, "title": "Toncoin Rises More Than 9% In 24 hours", "published_at": "2025-03-27T15:00:16Z", "slug": "Toncoin-Rises-More-Than-9-In-24-hours", "currencies": [{"code": "TON", "title": "Toncoin", "slug": "the-open-network", "url": "https://cryptopanic.com/news/the-open-network/"}], "id": 20883824, "url": "https://cryptopanic.com/news/20883824/Toncoin-Rises-More-Than-9-In-24-hours?mtm_campaign=API-OFA", "created_at": "2025-03-27T15:00:16Z", "votes": {"negative": 0, "positive": 0, "important": 0, "liked": 0, "disliked": 0, "lol": 0, "toxic": 0, "saved": 0, "comments": 0}}, {"kind": "news", "domain": "cointelegraph.com", "source": {"title": "CoinTelegraph", "region": "en", "domain": "cointelegraph.com", "path": null, "type": "feed"}, "title": "MahaKumbh signaled India\u2019s readiness for the metaverse", "published_at": "2025-03-27T15:00:00Z", "slug": "MahaKumbh-signaled-Indias-readiness-for-the-metaverse", "currencies": [{"code": "VR", "title": "Victoria VR", "slug": "victoria-vr", "url": "https://cryptopanic.com/news/victoria-vr/"}], "id": 20883790, "url": "https://cryptopanic.com/news/20883790/MahaKumbh-signaled-Indias-readiness-for-the-metaverse?mtm_campaign=API-OFA", "created_at": "2025-03-27T15:00:00Z", "votes": {"negative": 0, "positive": 0, "important": 0, "liked": 0, "disliked": 0, "lol": 0, "toxic": 0, "saved": 0, "comments": 0}}, {"kind": "news", "domain": "spaziocrypto.com", "source": {"title": "spaziocrypto.com", "region": "en", "domain": "spaziocrypto.com", "path": null, "type": "feed"}, "title": "Mantra (OM): Death Cross Coming? Correction Possible", "published_at": "2025-03-27T14:59:03Z", "slug": "Mantra-OM-Death-Cross-Coming-Correction-Possible", "currencies": [{"code": "OM", "title": "MANTRA", "slug": "mantra-dao", "url": "https://cryptopanic.com/news/mantra-dao/"}], "id": 20883710, "url": "https://cryptopanic.com/news/20883710/Mantra-OM-Death-Cross-Coming-Correction-Possible?mtm_campaign=API-OFA", "created_at": "2025-03-27T14:59:03Z", "votes": {"negative": 0, "positive": 0, "important": 0, "liked": 0, "disliked": 0, "lol": 0, "toxic": 0, "saved": 0, "comments": 0}}, {"kind": "news", "domain": "coinpaper.com", "source": {"title": "Coinpaper", "region": "en", "domain": "coinpaper.com", "path": null, "type": "feed"}, "title": "Duelbits Casino Review: Bonuses, Ratings, and Withdrawal Insights", "published_at": "2025-03-27T14:56:26Z", "slug": "Duelbits-Casino-Review-Bonuses-Ratings-and-Withdrawal-Insights", "id": 20883696, "url": "https://cryptopanic.com/news/20883696/Duelbits-Casino-Review-Bonuses-Ratings-and-Withdrawal-Insights?mtm_campaign=API-OFA", "created_at": "2025-03-27T14:56:26Z", "votes": {"negative": 0, "positive": 0, "important": 0, "liked": 0, "disliked": 0, "lol": 0, "toxic": 0, "saved": 0, "comments": 0}}, {"kind": "news", "domain": "altcoinbuzz.io", "source": {"title": "Altcoinbuzz", "region": "en", "domain": "altcoinbuzz.io", "path": null, "type": "feed"}, "title": "NC Bills Propose Crypto in Retirement Funds", "published_at": "2025-03-27T14:55:16Z", "slug": "NC-Bills-Propose-Crypto-in-Retirement-Funds", "currencies": [{"code": "BTC", "title": "Bitcoin", "slug": "bitcoin", "url": "https://cryptopanic.com/news/bitcoin/"}, {"code": "NC", "title": "Nodecoin", "slug": "nodecoin", "url": "https://cryptopanic.com/news/nodecoin/"}], "id": 20883695, "url": "https://cryptopanic.com/news/20883695/NC-Bills-Propose-Crypto-in-Retirement-Funds?mtm_campaign=API-OFA", "created_at": "2025-03-27T14:55:16Z", "votes": {"negative": 0, "positive": 0, "important": 0, "liked": 0, "disliked": 0, "lol": 0, "toxic": 0, "saved": 0, "comments": 0}}, {"kind": "news", "domain": "feeds2.benzinga.com", "source": {"title": "Benzinga", "region": "en", "domain": "feeds2.benzinga.com", "path": null, "type": "feed"}, "title": "Can Fartcoin Beat Dogecoin, Shiba Inu To Become The 'Biggest Winner This Year'?", "published_at": "2025-03-27T14:45:33Z", "slug": "Can-Fartcoin-Beat-Dogecoin-Shiba-Inu-To-Become-The-Biggest-Winner-This-Year", "currencies": [{"code": "SOL", "title": "Solana", "slug": "solana", "url": "https://cryptopanic.com/news/solana/"}, {"code": "DOGE", "title": "Dogecoin", "slug": "dogecoin", "url": "https://cryptopanic.com/news/dogecoin/"}, {"code": "SHIB", "title": "Shiba Inu", "slug": "shiba-inu", "url": "https://cryptopanic.com/news/shiba-inu/"}, {"code": "PEPE", "title": "Pepe", "slug": "pepe", "url": "https://cryptopanic.com/news/pepe/"}, {"code": "FARTCOIN", "title": "Fartcoin", "slug": "fartcoin", "url": "https://cryptopanic.com/news/fartcoin/"}], "id": 20883729, "url": "https://cryptopanic.com/news/20883729/Can-Fartcoin-Beat-Dogecoin-Shiba-Inu-To-Become-The-Biggest-Winner-This-Year?mtm_campaign=API-OFA", "created_at": "2025-03-27T14:45:33Z", "votes": {"negative": 0, "positive": 0, "important": 0, "liked": 0, "disliked": 0, "lol": 0, "toxic": 0, "saved": 0, "comments": 0}}, {"kind": "news", "domain": "decrypt.co", "source": {"title": "Decrypt", "region": "en", "domain": "decrypt.co", "path": null, "type": "feed"}, "title": "Robinhood Sweetens Gold Membership as Bernstein Sets $105 Price Target", "published_at": "2025-03-27T14:45:02Z", "slug": "Robinhood-Sweetens-Gold-Membership-as-Bernstein-Sets-105-Price-Target", "id": 20883674, "url": "https://cryptopanic.com/news/20883674/Robinhood-Sweetens-Gold-Membership-as-Bernstein-Sets-105-Price-Target?mtm_campaign=API-OFA", "created_at": "2025-03-27T14:45:02Z", "votes": {"negative": 0, "positive": 0, "important": 0, "liked": 0, "disliked": 0, "lol": 0, "toxic": 0, "saved": 0, "comments": 0}}, {"kind": "news", "domain": "cryptopolitan.com", "source": {"title": "Feed - Cryptopolitan.Com", "region": "en", "domain": "cryptopolitan.com", "path": null, "type": "feed"}, "title": "MAGA-DOGE trouble galore: Judge who blocked Trump\u2019s deportation flights assigned to Signalgate lawsuit", "published_at": "2025-03-27T14:40:16Z", "slug": "MAGA-DOGE-trouble-galore-Judge-who-blocked-Trumps-deportation-flights-assigned-to-Signalgate-lawsuit", "currencies": [{"code": "DOGE", "title": "Dogecoin", "slug": "dogecoin", "url": "https://cryptopanic.com/news/dogecoin/"}, {"code": "MAGA", "title": "MAGA Hat", "slug": "maga-hat", "url": "https://cryptopanic.com/news/maga-hat/"}], "id": 20883676, "url": "https://cryptopanic.com/news/20883676/MAGA-DOGE-trouble-galore-Judge-who-blocked-Trumps-deportation-flights-assigned-to-Signalgate-lawsuit?mtm_campaign=API-OFA", "created_at": "2025-03-27T14:40:16Z", "votes": {"negative": 0, "positive": 0, "important": 0, "liked": 0, "disliked": 0, "lol": 0, "toxic": 0, "saved": 0, "comments": 0}}]}