{"count": 200, "next": "https://cryptopanic.com/api/free/v1/posts/?auth_token=5d3efdf3405c86e637926d16c630b32483628a26&page=2", "previous": null, "results": [{"kind": "news", "domain": "solanafloor.com", "source": {"title": "Solanafloor", "region": "en", "domain": "solanafloor.com", "path": null, "type": "feed"}, "title": "DeCharge Raises $2.5M to Tackle EV Charging Infrastructure Gap", "published_at": "2025-03-27T17:49:00Z", "slug": "DeCharge-Raises-25M-to-Tackle-EV-Charging-Infrastructure-Gap", "currencies": [{"code": "SOL", "title": "Solana", "slug": "solana", "url": "https://cryptopanic.com/news/solana/"}, {"code": "DEPIN", "title": "DEPIN", "slug": "depin", "url": "https://cryptopanic.com/news/depin/"}], "id": 20884460, "url": "https://cryptopanic.com/news/20884460/DeCharge-Raises-25M-to-Tackle-EV-Charging-Infrastructure-Gap?mtm_campaign=API-OFA", "created_at": "2025-03-27T17:49:00Z", "votes": {"negative": 0, "positive": 0, "important": 0, "liked": 0, "disliked": 0, "lol": 0, "toxic": 0, "saved": 0, "comments": 0}}, {"kind": "news", "domain": "coinpaper.com", "source": {"title": "Coinpaper", "region": "en", "domain": "coinpaper.com", "path": null, "type": "feed"}, "title": "What Happens If I Invest $20 in Bitcoin Today?", "published_at": "2025-03-27T17:45:22Z", "slug": "What-Happens-If-I-Invest-20-in-Bitcoin-Today", "currencies": [{"code": "BTC", "title": "Bitcoin", "slug": "bitcoin", "url": "https://cryptopanic.com/news/bitcoin/"}], "id": 20884539, "url": "https://cryptopanic.com/news/20884539/What-Happens-If-I-Invest-20-in-Bitcoin-Today?mtm_campaign=API-OFA", "created_at": "2025-03-27T17:45:22Z", "votes": {"negative": 0, "positive": 0, "important": 0, "liked": 0, "disliked": 0, "lol": 0, "toxic": 0, "saved": 0, "comments": 0}}, {"kind": "news", "domain": "cryptopolitan.com", "source": {"title": "Feed - Cryptopolitan.Com", "region": "en", "domain": "cryptopolitan.com", "path": null, "type": "feed"}, "title": "Crypto billionaire Justin Sun graces the daily cover of Forbes", "published_at": "2025-03-27T17:45:09Z", "slug": "Crypto-billionaire-Justin-Sun-graces-the-daily-cover-of-Forbes", "currencies": [{"code": "TRX", "title": "TRON", "slug": "tron", "url": "https://cryptopanic.com/news/tron/"}, {"code": "S", "title": "Sonic (prev. FTM)", "slug": "sonic-3", "url": "https://cryptopanic.com/news/sonic-3/"}], "id": 20884562, "url": "https://cryptopanic.com/news/20884562/Crypto-billionaire-Justin-Sun-graces-the-daily-cover-of-Forbes?mtm_campaign=API-OFA", "created_at": "2025-03-27T17:45:09Z", "votes": {"negative": 0, "positive": 0, "important": 0, "liked": 0, "disliked": 0, "lol": 0, "toxic": 0, "saved": 0, "comments": 0}}, {"kind": "news", "domain": "thecoinrepublic.com", "source": {"title": "The Coin Republic", "region": "en", "domain": "thecoinrepublic.com", "path": null, "type": "feed"}, "title": "Shiba Inu Poised For 12X Surge Soon? Analysts Weigh In", "published_at": "2025-03-27T17:41:00Z", "slug": "Shiba-Inu-Poised-For-12X-Surge-Soon-Analysts-Weigh-In", "currencies": [{"code": "SHIB", "title": "Shiba Inu", "slug": "shiba-inu", "url": "https://cryptopanic.com/news/shiba-inu/"}], "id": 20884544, "url": "https://cryptopanic.com/news/20884544/Shiba-Inu-Poised-For-12X-Surge-Soon-Analysts-Weigh-In?mtm_campaign=API-OFA", "created_at": "2025-03-27T17:41:00Z", "votes": {"negative": 0, "positive": 0, "important": 0, "liked": 0, "disliked": 0, "lol": 0, "toxic": 0, "saved": 0, "comments": 0}}, {"kind": "news", "domain": "feeds2.benzinga.com", "votes": {"negative": 1, "positive": 0, "important": 0, "liked": 0, "disliked": 1, "lol": 1, "toxic": 0, "saved": 0, "comments": 0}, "source": {"title": "Benzinga", "region": "en", "domain": "feeds2.benzinga.com", "path": null, "type": "feed"}, "title": "Stocks Slide As Auto Tariffs Boost Tesla, Rivian And Hit GM, Ford: What's Driving Markets Thursday?", "published_at": "2025-03-27T17:33:02Z", "slug": "Stocks-Slide-As-Auto-Tariffs-Boost-Tesla-Rivian-And-Hit-GM-Ford-Whats-Driving-Markets-Thursday", "currencies": [{"code": "BTC", "title": "Bitcoin", "slug": "bitcoin", "url": "https://cryptopanic.com/news/bitcoin/"}, {"code": "DIA", "title": "DIA", "slug": "dia-data", "url": "https://cryptopanic.com/news/dia-data/"}, {"code": "F", "title": "SynFutures", "slug": "synfutures", "url": "https://cryptopanic.com/news/synfutures/"}, {"code": "GME", "title": "GME", "slug": "gme", "url": "https://cryptopanic.com/news/gme/"}, {"code": "TRUMP", "title": "MAGA", "slug": "maga", "url": "https://cryptopanic.com/news/maga/"}, {"code": "CAR", "title": "Central African Republic Meme", "slug": "central-african-republic-meme", "url": "https://cryptopanic.com/news/central-african-republic-meme/"}, {"code": "GM", "title": "GM.AI", "slug": "gm-ai", "url": "https://cryptopanic.com/news/gm-ai/"}], "id": 20884555, "url": "https://cryptopanic.com/news/20884555/Stocks-Slide-As-Auto-Tariffs-Boost-Tesla-Rivian-And-Hit-GM-Ford-Whats-Driving-Markets-Thursday?mtm_campaign=API-OFA", "created_at": "2025-03-27T17:33:02Z"}, {"kind": "news", "domain": "theblock.co", "source": {"title": "The Block", "region": "en", "domain": "theblock.co", "path": null, "type": "feed"}, "title": "Decentralized exchange Hyperliquid rolls out ETH spot trading shortly after merging HyperCore and HyperEVM", "published_at": "2025-03-27T17:32:22Z", "slug": "Decentralized-exchange-Hyperliquid-rolls-out-ETH-spot-trading-shortly-after-merging-HyperCore-and-HyperEVM", "currencies": [{"code": "ETH", "title": "Ethereum", "slug": "ethereum", "url": "https://cryptopanic.com/news/ethereum/"}, {"code": "HYPE", "title": "Hyperliquid", "slug": "hyperliquid", "url": "https://cryptopanic.com/news/hyperliquid/"}, {"code": "L1", "title": "Lamina1", "slug": "lamina1", "url": "https://cryptopanic.com/news/lamina1/"}, {"code": "DEFI", "title": "DeFi", "slug": "de-fi", "url": "https://cryptopanic.com/news/de-fi/"}], "id": 20884512, "url": "https://cryptopanic.com/news/20884512/Decentralized-exchange-Hyperliquid-rolls-out-ETH-spot-trading-shortly-after-merging-HyperCore-and-HyperEVM?mtm_campaign=API-OFA", "created_at": "2025-03-27T17:32:22Z", "votes": {"negative": 0, "positive": 0, "important": 0, "liked": 0, "disliked": 0, "lol": 0, "toxic": 0, "saved": 0, "comments": 0}}, {"kind": "news", "domain": "thestreet.com", "source": {"title": "The Street Crypto", "region": "en", "domain": "thestreet.com", "path": null, "type": "feed"}, "title": "Q1 2025 was the worst quarter ever for crypto hacks \u2014 $1.64B lost", "published_at": "2025-03-27T17:31:00Z", "slug": "Q1-2025-was-the-worst-quarter-ever-for-crypto-hacks-164B-lost", "id": 20884548, "url": "https://cryptopanic.com/news/20884548/Q1-2025-was-the-worst-quarter-ever-for-crypto-hacks-164B-lost?mtm_campaign=API-OFA", "created_at": "2025-03-27T17:31:00Z", "votes": {"negative": 0, "positive": 0, "important": 0, "liked": 0, "disliked": 0, "lol": 0, "toxic": 0, "saved": 0, "comments": 0}}, {"kind": "news", "domain": "cryptopolitan.com", "source": {"title": "Feed - Cryptopolitan.Com", "region": "en", "domain": "cryptopolitan.com", "path": null, "type": "feed"}, "title": "Tokenized securities expands, as investors turn to predictable passive income", "published_at": "2025-03-27T17:30:28Z", "slug": "Tokenized-securities-expands-as-investors-turn-to-predictable-passive-income", "id": 20884509, "url": "https://cryptopanic.com/news/20884509/Tokenized-securities-expands-as-investors-turn-to-predictable-passive-income?mtm_campaign=API-OFA", "created_at": "2025-03-27T17:30:28Z", "votes": {"negative": 0, "positive": 0, "important": 0, "liked": 0, "disliked": 0, "lol": 0, "toxic": 0, "saved": 0, "comments": 0}}, {"kind": "news", "domain": "coincu.com", "source": {"title": "coincu", "region": "en", "domain": "coincu.com", "path": null, "type": "feed"}, "title": "Bpifrance Launches \u20ac25M Cryptocurrency Fund in France", "published_at": "2025-03-27T17:29:08Z", "slug": "Bpifrance-Launches-25M-Cryptocurrency-Fund-in-France", "id": 20884494, "url": "https://cryptopanic.com/news/20884494/Bpifrance-Launches-25M-Cryptocurrency-Fund-in-France?mtm_campaign=API-OFA", "created_at": "2025-03-27T17:29:08Z", "votes": {"negative": 0, "positive": 0, "important": 0, "liked": 0, "disliked": 0, "lol": 0, "toxic": 0, "saved": 0, "comments": 0}}, {"kind": "news", "domain": "zycrypto.com", "source": {"title": "ZyCrypto", "region": "en", "domain": "zycrypto.com", "path": null, "type": "feed"}, "title": "XRP Moon Time? Ripple\u2019s Garlinghouse Confident Of XRP\u2019s Inclusion To U.S. Stockpile After Landmark Legal Victory", "published_at": "2025-03-27T17:26:53Z", "slug": "XRP-Moon-Time-Ripples-Garlinghouse-Confident-Of-XRPs-Inclusion-To-US-Stockpile-After-Landmark-Legal-Victory", "currencies": [{"code": "XRP", "title": "XRP", "slug": "ripple", "url": "https://cryptopanic.com/news/ripple/"}, {"code": "S", "title": "Sonic (prev. FTM)", "slug": "sonic-3", "url": "https://cryptopanic.com/news/sonic-3/"}], "id": 20884486, "url": "https://cryptopanic.com/news/20884486/XRP-Moon-Time-Ripples-Garlinghouse-Confident-Of-XRPs-Inclusion-To-US-Stockpile-After-Landmark-Legal-Victory?mtm_campaign=API-OFA", "created_at": "2025-03-27T17:26:53Z", "votes": {"negative": 0, "positive": 0, "important": 0, "liked": 0, "disliked": 0, "lol": 0, "toxic": 0, "saved": 0, "comments": 0}}, {"kind": "news", "domain": "thestreet.com", "votes": {"negative": 1, "positive": 0, "important": 0, "liked": 0, "disliked": 1, "lol": 1, "toxic": 0, "saved": 0, "comments": 0}, "source": {"title": "The Street Crypto", "region": "en", "domain": "thestreet.com", "path": null, "type": "feed"}, "title": "BlackRock owns $47.4M in Bitcoin ETF, filing shows", "published_at": "2025-03-27T17:19:58Z", "slug": "BlackRock-owns-474M-in-Bitcoin-ETF-filing-shows", "currencies": [{"code": "BTC", "title": "Bitcoin", "slug": "bitcoin", "url": "https://cryptopanic.com/news/bitcoin/"}], "id": 20884533, "url": "https://cryptopanic.com/news/20884533/BlackRock-owns-474M-in-Bitcoin-ETF-filing-shows?mtm_campaign=API-OFA", "created_at": "2025-03-27T17:19:58Z"}, {"kind": "news", "domain": "cryptopolitan.com", "source": {"title": "Feed - Cryptopolitan.Com", "region": "en", "domain": "cryptopolitan.com", "path": null, "type": "feed"}, "title": "ReachMe protocol patched a vulnerability allowing a lower fee for reaching KOLs", "published_at": "2025-03-27T17:15:50Z", "slug": "ReachMe-protocol-patched-a-vulnerability-allowing-a-lower-fee-for-reaching-KOLs", "currencies": [{"code": "BNB", "title": "BNB", "slug": "binancecoin", "url": "https://cryptopanic.com/news/binancecoin/"}], "id": 20884472, "url": "https://cryptopanic.com/news/20884472/ReachMe-protocol-patched-a-vulnerability-allowing-a-lower-fee-for-reaching-KOLs?mtm_campaign=API-OFA", "created_at": "2025-03-27T17:15:50Z", "votes": {"negative": 0, "positive": 0, "important": 0, "liked": 0, "disliked": 0, "lol": 0, "toxic": 0, "saved": 0, "comments": 0}}, {"kind": "news", "domain": "thecoinrepublic.com", "votes": {"negative": 0, "positive": 0, "important": 1, "liked": 0, "disliked": 0, "lol": 0, "toxic": 0, "saved": 1, "comments": 0}, "source": {"title": "The Coin Republic", "region": "en", "domain": "thecoinrepublic.com", "path": null, "type": "feed"}, "title": "Peter Schiff Cheers Gold\u2019s $3,060 Rally as Bitcoin Price Struggles", "published_at": "2025-03-27T17:14:00Z", "slug": "Peter-Schiff-Cheers-Golds-3060-Rally-as-Bitcoin-Price-Struggles", "currencies": [{"code": "BTC", "title": "Bitcoin", "slug": "bitcoin", "url": "https://cryptopanic.com/news/bitcoin/"}], "id": 20884424, "url": "https://cryptopanic.com/news/20884424/Peter-Schiff-Cheers-Golds-3060-Rally-as-Bitcoin-Price-Struggles?mtm_campaign=API-OFA", "created_at": "2025-03-27T17:14:00Z"}, {"kind": "news", "domain": "@DaanCrypto", "source": {"title": "Twitter - daancrypto", "region": "en", "domain": "DaanCrypto", "path": "@daancrypto", "type": "twitter"}, "title": "$ETH The big $2.1K level has held as resistance on the first test.\n\nTo get some kind of higher timeframe reversal going, it is important that ETH breaks through that area and gets itself back in the $2.1K-$2.8K range.\n\nFor now, still stuck within the $1.7K-$2.1K range.", "published_at": "2025-03-27T17:13:41Z", "slug": "ETH-The-big-21K-level-has-held-as-resistance-on-the-first-test-To-get-some-kind-of-higher-timeframe-reversal-going-it-is-important-that-ETH-breaks-through-that-area-and-gets-itself-back-in-the-21K-28K-range-For-now-still-stuck-within-the-17K-21K-range", "currencies": [{"code": "ETH", "title": "Bridged Ether (StarkGate)", "slug": "bridged-wrapped-ether-starkgate", "url": "https://cryptopanic.com/news/bridged-wrapped-ether-starkgate/"}], "id": 20884416, "url": "https://cryptopanic.com/news/20884416/ETH-The-big-21K-level-has-held-as-resistance-on-the-first-test-To-get-some-kind-of-higher-timeframe-reversal-going-it-is-important-that-ETH-breaks-through-that-area-and-gets-itself-back-in-the-21K-28K-range-For-now-still-stuck-within-the-17K-21K-range?mtm_campaign=API-OFA", "created_at": "2025-03-27T17:13:41Z", "votes": {"negative": 0, "positive": 0, "important": 0, "liked": 0, "disliked": 0, "lol": 0, "toxic": 0, "saved": 0, "comments": 0}}, {"kind": "news", "domain": "decrypt.co", "source": {"title": "Decrypt", "region": "en", "domain": "decrypt.co", "path": null, "type": "feed"}, "title": "'Ghiblification' AI Anime Image Trend Pumps GHIBLI Solana Meme Coin", "published_at": "2025-03-27T17:11:13Z", "slug": "Ghiblification-AI-Anime-Image-Trend-Pumps-GHIBLI-Solana-Meme-Coin", "currencies": [{"code": "SOL", "title": "Solana", "slug": "solana", "url": "https://cryptopanic.com/news/solana/"}, {"code": "GHIBLI", "title": "Ghiblification", "slug": "ghiblification", "url": "https://cryptopanic.com/news/ghiblification/"}], "id": 20884417, "url": "https://cryptopanic.com/news/20884417/Ghiblification-AI-Anime-Image-Trend-Pumps-GHIBLI-Solana-Meme-Coin?mtm_campaign=API-OFA", "created_at": "2025-03-27T17:11:13Z", "votes": {"negative": 0, "positive": 0, "important": 0, "liked": 0, "disliked": 0, "lol": 0, "toxic": 0, "saved": 0, "comments": 0}}, {"kind": "news", "domain": "cointelegraph.com", "source": {"title": "CoinTelegraph", "region": "en", "domain": "cointelegraph.com", "path": null, "type": "feed"}, "title": "Bitcoin price rally stalls as gold nears record $3.1K", "published_at": "2025-03-27T17:10:57Z", "slug": "Bitcoin-price-rally-stalls-as-gold-nears-record-31K", "currencies": [{"code": "BTC", "title": "Bitcoin", "slug": "bitcoin", "url": "https://cryptopanic.com/news/bitcoin/"}], "id": 20884414, "url": "https://cryptopanic.com/news/20884414/Bitcoin-price-rally-stalls-as-gold-nears-record-31K?mtm_campaign=API-OFA", "created_at": "2025-03-27T17:10:57Z", "votes": {"negative": 0, "positive": 0, "important": 0, "liked": 0, "disliked": 0, "lol": 0, "toxic": 0, "saved": 0, "comments": 0}}, {"kind": "news", "domain": "thedefiant.io", "votes": {"negative": 1, "positive": 0, "important": 1, "liked": 0, "disliked": 0, "lol": 0, "toxic": 0, "saved": 1, "comments": 0}, "source": {"title": "DeFi News", "region": "en", "domain": "thedefiant.io", "path": null, "type": "feed"}, "title": "Crypto Market Extends Losses as Tariff Uncertainty Weighs on Investor Sentiment", "published_at": "2025-03-27T17:04:31Z", "slug": "Crypto-Market-Extends-Losses-as-Tariff-Uncertainty-Weighs-on-Investor-Sentiment", "currencies": [{"code": "BTC", "title": "Bitcoin", "slug": "bitcoin", "url": "https://cryptopanic.com/news/bitcoin/"}, {"code": "ETH", "title": "Ethereum", "slug": "ethereum", "url": "https://cryptopanic.com/news/ethereum/"}, {"code": "XRP", "title": "XRP", "slug": "ripple", "url": "https://cryptopanic.com/news/ripple/"}, {"code": "SOL", "title": "Solana", "slug": "solana", "url": "https://cryptopanic.com/news/solana/"}], "id": 20884393, "url": "https://cryptopanic.com/news/20884393/Crypto-Market-Extends-Losses-as-Tariff-Uncertainty-Weighs-on-Investor-Sentiment?mtm_campaign=API-OFA", "created_at": "2025-03-27T17:04:31Z"}, {"kind": "news", "domain": "cryptobriefing.com", "votes": {"negative": 1, "positive": 0, "important": 0, "liked": 0, "disliked": 1, "lol": 1, "toxic": 0, "saved": 0, "comments": 0}, "source": {"title": "CryptoBriefing", "region": "en", "domain": "cryptobriefing.com", "path": null, "type": "feed"}, "title": "BlackRock\u2019s Global Allocation Fund boosts IBIT shares by 91%", "published_at": "2025-03-27T17:03:04Z", "slug": "BlackRocks-Global-Allocation-Fund-boosts-IBIT-shares-by-91", "currencies": [{"code": "BTC", "title": "Bitcoin", "slug": "bitcoin", "url": "https://cryptopanic.com/news/bitcoin/"}], "id": 20884372, "url": "https://cryptopanic.com/news/20884372/BlackRocks-Global-Allocation-Fund-boosts-IBIT-shares-by-91?mtm_campaign=API-OFA", "created_at": "2025-03-27T17:03:04Z"}, {"kind": "news", "domain": "feeds2.benzinga.com", "votes": {"negative": 0, "positive": 0, "important": 1, "liked": 0, "disliked": 0, "lol": 0, "toxic": 0, "saved": 1, "comments": 0}, "source": {"title": "Benzinga", "region": "en", "domain": "feeds2.benzinga.com", "path": null, "type": "feed"}, "title": "XRP Slides Another 2%: What Is Going On?", "published_at": "2025-03-27T17:01:53Z", "slug": "XRP-Slides-Another-2-What-Is-Going-On", "currencies": [{"code": "BTC", "title": "Bitcoin", "slug": "bitcoin", "url": "https://cryptopanic.com/news/bitcoin/"}, {"code": "ETH", "title": "Ethereum", "slug": "ethereum", "url": "https://cryptopanic.com/news/ethereum/"}, {"code": "XRP", "title": "XRP", "slug": "ripple", "url": "https://cryptopanic.com/news/ripple/"}], "id": 20884429, "url": "https://cryptopanic.com/news/20884429/XRP-Slides-Another-2-What-Is-Going-On?mtm_campaign=API-OFA", "created_at": "2025-03-27T17:01:53Z"}, {"kind": "media", "domain": "youtube.com", "source": {"title": "Crypto Tips", "region": "en", "domain": "youtube.com", "path": null, "type": "media"}, "title": "How To Get OUT Of Crypto Safely", "published_at": "2025-03-27T17:00:57Z", "slug": "How-To-Get-OUT-Of-Crypto-Safely", "id": 20884391, "url": "https://cryptopanic.com/news/20884391/How-To-Get-OUT-Of-Crypto-Safely?mtm_campaign=API-OFA", "created_at": "2025-03-27T17:00:57Z", "votes": {"negative": 0, "positive": 0, "important": 0, "liked": 0, "disliked": 0, "lol": 0, "toxic": 0, "saved": 0, "comments": 0}}]}