{"count": 200, "next": "https://cryptopanic.com/api/free/v1/posts/?auth_token=5af695bcff5c75367f3c78b782e79ffb96df0678&page=2", "previous": null, "results": [{"kind": "news", "domain": "cointelegraph.com", "source": {"title": "CoinTelegraph", "region": "en", "domain": "cointelegraph.com", "path": null, "type": "feed"}, "title": "GameStop wipes out $3B in market cap as stockholders question Bitcoin plan", "published_at": "2025-03-27T18:59:54Z", "slug": "GameStop-wipes-out-3B-in-market-cap-as-stockholders-question-Bitcoin-plan", "currencies": [{"code": "BTC", "title": "Bitcoin", "slug": "bitcoin", "url": "https://cryptopanic.com/news/bitcoin/"}], "id": 20884843, "url": "https://cryptopanic.com/news/20884843/GameStop-wipes-out-3B-in-market-cap-as-stockholders-question-Bitcoin-plan?mtm_campaign=API-OFA", "created_at": "2025-03-27T18:59:54Z", "votes": {"negative": 0, "positive": 0, "important": 0, "liked": 0, "disliked": 0, "lol": 0, "toxic": 0, "saved": 0, "comments": 0}}, {"kind": "news", "domain": "theblock.co", "source": {"title": "The Block", "region": "en", "domain": "theblock.co", "path": null, "type": "feed"}, "title": "The Daily: US Senate votes to repeal controversial crypto tax rule, Ethereum edges closer to deploying Pectra and more", "published_at": "2025-03-27T18:54:35Z", "slug": "The-Daily-US-Senate-votes-to-repeal-controversial-crypto-tax-rule-Ethereum-edges-closer-to-deploying-Pectra-and-more", "currencies": [{"code": "ETH", "title": "Ethereum", "slug": "ethereum", "url": "https://cryptopanic.com/news/ethereum/"}, {"code": "GAL", "title": "Galxe", "slug": "project-galaxy", "url": "https://cryptopanic.com/news/project-galaxy/"}, {"code": "PEOPLE", "title": "ConstitutionDAO", "slug": "constitutiondao", "url": "https://cryptopanic.com/news/constitutiondao/"}, {"code": "DEFI", "title": "DeFi", "slug": "de-fi", "url": "https://cryptopanic.com/news/de-fi/"}, {"code": "S", "title": "Agent S", "slug": "agent-s", "url": "https://cryptopanic.com/news/agent-s/"}], "id": 20884805, "url": "https://cryptopanic.com/news/20884805/The-Daily-US-Senate-votes-to-repeal-controversial-crypto-tax-rule-Ethereum-edges-closer-to-deploying-Pectra-and-more?mtm_campaign=API-OFA", "created_at": "2025-03-27T18:54:35Z", "votes": {"negative": 0, "positive": 0, "important": 0, "liked": 0, "disliked": 0, "lol": 0, "toxic": 0, "saved": 0, "comments": 0}}, {"kind": "news", "domain": "thecoinrepublic.com", "source": {"title": "The Coin Republic", "region": "en", "domain": "thecoinrepublic.com", "path": null, "type": "feed"}, "title": "Cardano Price Ready For Surge? Analysts Predict Big Moves Ahead", "published_at": "2025-03-27T18:53:00Z", "slug": "Cardano-Price-Ready-For-Surge-Analysts-Predict-Big-Moves-Ahead", "currencies": [{"code": "ADA", "title": "Cardano", "slug": "cardano", "url": "https://cryptopanic.com/news/cardano/"}, {"code": "MOVE", "title": "Movement", "slug": "movement", "url": "https://cryptopanic.com/news/movement/"}], "id": 20884809, "url": "https://cryptopanic.com/news/20884809/Cardano-Price-Ready-For-Surge-Analysts-Predict-Big-Moves-Ahead?mtm_campaign=API-OFA", "created_at": "2025-03-27T18:53:00Z", "votes": {"negative": 0, "positive": 0, "important": 0, "liked": 0, "disliked": 0, "lol": 0, "toxic": 0, "saved": 0, "comments": 0}}, {"kind": "news", "domain": "decrypt.co", "source": {"title": "Decrypt", "region": "en", "domain": "decrypt.co", "path": null, "type": "feed"}, "title": "FTX Founder SBF Shipped to Oklahoma via 'Con Air' After Unauthorized Jailhouse Interview", "published_at": "2025-03-27T18:47:14Z", "slug": "FTX-Founder-SBF-Shipped-to-Oklahoma-via-Con-Air-After-Unauthorized-Jailhouse-Interview", "id": 20884791, "url": "https://cryptopanic.com/news/20884791/FTX-Founder-SBF-Shipped-to-Oklahoma-via-Con-Air-After-Unauthorized-Jailhouse-Interview?mtm_campaign=API-OFA", "created_at": "2025-03-27T18:47:14Z", "votes": {"negative": 0, "positive": 0, "important": 0, "liked": 0, "disliked": 0, "lol": 0, "toxic": 0, "saved": 0, "comments": 0}}, {"kind": "news", "domain": "cryptoslate.com", "source": {"title": "CryptoSlate", "region": "en", "domain": "cryptoslate.com", "path": null, "type": "feed"}, "title": "BlackRock\u2019s Global Allocation Fund raises Bitcoin exposure by 1,810% over 12 months", "published_at": "2025-03-27T18:45:52Z", "slug": "BlackRocks-Global-Allocation-Fund-raises-Bitcoin-exposure-by-1810-over-12-months", "currencies": [{"code": "BTC", "title": "Bitcoin", "slug": "bitcoin", "url": "https://cryptopanic.com/news/bitcoin/"}], "id": 20884768, "url": "https://cryptopanic.com/news/20884768/BlackRocks-Global-Allocation-Fund-raises-Bitcoin-exposure-by-1810-over-12-months?mtm_campaign=API-OFA", "created_at": "2025-03-27T18:45:52Z", "votes": {"negative": 0, "positive": 0, "important": 0, "liked": 0, "disliked": 0, "lol": 0, "toxic": 0, "saved": 0, "comments": 0}}, {"kind": "news", "domain": "dailyhodl.com", "source": {"title": "The Daily Hodl", "region": "en", "domain": "dailyhodl.com", "path": null, "type": "feed"}, "title": "$5,000,000,000,000 Asset Manager Fidelity To Launch a USD-Pegged Stablecoin: Report", "published_at": "2025-03-27T18:45:49Z", "slug": "5000000000000-Asset-Manager-Fidelity-To-Launch-a-USD-Pegged-Stablecoin-Report", "id": 20884774, "url": "https://cryptopanic.com/news/20884774/5000000000000-Asset-Manager-Fidelity-To-Launch-a-USD-Pegged-Stablecoin-Report?mtm_campaign=API-OFA", "created_at": "2025-03-27T18:45:49Z", "votes": {"negative": 0, "positive": 0, "important": 0, "liked": 0, "disliked": 0, "lol": 0, "toxic": 0, "saved": 0, "comments": 0}}, {"kind": "media", "domain": "youtube.com", "source": {"title": "Milk Road - Youtube", "region": "en", "domain": "youtube.com", "path": null, "type": "media"}, "title": "From Wild West to Wall Street: The New Era of Crypto", "published_at": "2025-03-27T18:45:02Z", "slug": "From-Wild-West-to-Wall-Street-The-New-Era-of-Crypto", "id": 20884806, "url": "https://cryptopanic.com/news/20884806/From-Wild-West-to-Wall-Street-The-New-Era-of-Crypto?mtm_campaign=API-OFA", "created_at": "2025-03-27T18:45:02Z", "votes": {"negative": 0, "positive": 0, "important": 0, "liked": 0, "disliked": 0, "lol": 0, "toxic": 0, "saved": 0, "comments": 0}}, {"kind": "news", "domain": "blockchainlab.co.in", "source": {"title": "Blockchain Lab", "region": "en", "domain": "blockchainlab.co.in", "path": null, "type": "feed"}, "title": "The Strategy Effect: How Much Bitcoin Did Corporates Buy This Week?", "published_at": "2025-03-27T18:43:40Z", "slug": "The-Strategy-Effect-How-Much-Bitcoin-Did-Corporates-Buy-This-Week", "currencies": [{"code": "BTC", "title": "Bitcoin", "slug": "bitcoin", "url": "https://cryptopanic.com/news/bitcoin/"}], "id": 20884765, "url": "https://cryptopanic.com/news/20884765/The-Strategy-Effect-How-Much-Bitcoin-Did-Corporates-Buy-This-Week?mtm_campaign=API-OFA", "created_at": "2025-03-27T18:43:40Z", "votes": {"negative": 0, "positive": 0, "important": 0, "liked": 0, "disliked": 0, "lol": 0, "toxic": 0, "saved": 0, "comments": 0}}, {"kind": "news", "domain": "cryptobriefing.com", "source": {"title": "CryptoBriefing", "region": "en", "domain": "cryptobriefing.com", "path": null, "type": "feed"}, "title": "French investment powerhouse unveils $27M crypto token fund to boost blockchain projects", "published_at": "2025-03-27T18:43:11Z", "slug": "French-investment-powerhouse-unveils-27M-crypto-token-fund-to-boost-blockchain-projects", "currencies": [{"code": "BTC", "title": "Bitcoin", "slug": "bitcoin", "url": "https://cryptopanic.com/news/bitcoin/"}], "id": 20884771, "url": "https://cryptopanic.com/news/20884771/French-investment-powerhouse-unveils-27M-crypto-token-fund-to-boost-blockchain-projects?mtm_campaign=API-OFA", "created_at": "2025-03-27T18:43:11Z", "votes": {"negative": 0, "positive": 0, "important": 0, "liked": 0, "disliked": 0, "lol": 0, "toxic": 0, "saved": 0, "comments": 0}}, {"kind": "news", "domain": "cointelegraph.com", "source": {"title": "CoinTelegraph", "region": "en", "domain": "cointelegraph.com", "path": null, "type": "feed"}, "title": "Senator John Kennedy grills SEC nominee Paul Atkins about SBF pardon", "published_at": "2025-03-27T18:42:28Z", "slug": "Senator-John-Kennedy-grills-SEC-nominee-Paul-Atkins-about-SBF-pardon", "id": 20884766, "url": "https://cryptopanic.com/news/20884766/Senator-John-Kennedy-grills-SEC-nominee-Paul-Atkins-about-SBF-pardon?mtm_campaign=API-OFA", "created_at": "2025-03-27T18:42:28Z", "votes": {"negative": 0, "positive": 0, "important": 0, "liked": 0, "disliked": 0, "lol": 0, "toxic": 0, "saved": 0, "comments": 0}}, {"kind": "news", "domain": "dailyhodl.com", "source": {"title": "The Daily Hodl", "region": "en", "domain": "dailyhodl.com", "path": null, "type": "feed"}, "title": "GameStop (GME) Stock Falls Following $1,300,000,000 Bitcoin (BTC) Announcement", "published_at": "2025-03-27T18:41:29Z", "slug": "GameStop-GME-Stock-Falls-Following-1300000000-Bitcoin-BTC-Announcement", "currencies": [{"code": "BTC", "title": "Bitcoin", "slug": "bitcoin", "url": "https://cryptopanic.com/news/bitcoin/"}, {"code": "GME", "title": "GME", "slug": "gme", "url": "https://cryptopanic.com/news/gme/"}], "id": 20884758, "url": "https://cryptopanic.com/news/20884758/GameStop-GME-Stock-Falls-Following-1300000000-Bitcoin-BTC-Announcement?mtm_campaign=API-OFA", "created_at": "2025-03-27T18:41:29Z", "votes": {"negative": 0, "positive": 0, "important": 0, "liked": 0, "disliked": 0, "lol": 0, "toxic": 0, "saved": 0, "comments": 0}}, {"kind": "news", "domain": "feeds2.benzinga.com", "source": {"title": "Benzinga", "region": "en", "domain": "feeds2.benzinga.com", "path": null, "type": "feed"}, "title": "ADA Up 11% In 30 Days: How High Can Cardano Go?", "published_at": "2025-03-27T18:40:34Z", "slug": "ADA-Up-11-In-30-Days-How-High-Can-Cardano-Go", "currencies": [{"code": "BTC", "title": "Bitcoin", "slug": "bitcoin", "url": "https://cryptopanic.com/news/bitcoin/"}, {"code": "ETH", "title": "Ethereum", "slug": "ethereum", "url": "https://cryptopanic.com/news/ethereum/"}, {"code": "ADA", "title": "Cardano", "slug": "cardano", "url": "https://cryptopanic.com/news/cardano/"}], "id": 20884804, "url": "https://cryptopanic.com/news/20884804/ADA-Up-11-In-30-Days-How-High-Can-Cardano-Go?mtm_campaign=API-OFA", "created_at": "2025-03-27T18:40:34Z", "votes": {"negative": 0, "positive": 0, "important": 0, "liked": 0, "disliked": 0, "lol": 0, "toxic": 0, "saved": 0, "comments": 0}}, {"kind": "news", "domain": "@BTC_Archive", "source": {"title": "X - btc_archive", "region": "en", "domain": "BTC_Archive", "path": "@btc_archive", "type": "twitter"}, "title": "\"Let me know when a significant company buys Bitcoin\"\n\nPeople forget Tesla and SpaceX hold Bitcoin.", "published_at": "2025-03-27T18:40:11Z", "slug": "Let-me-know-when-a-significant-company-buys-Bitcoin-People-forget-Tesla-and-SpaceX-hold-Bitcoin", "id": 20884759, "url": "https://cryptopanic.com/news/20884759/Let-me-know-when-a-significant-company-buys-Bitcoin-People-forget-Tesla-and-SpaceX-hold-Bitcoin?mtm_campaign=API-OFA", "created_at": "2025-03-27T18:40:11Z", "votes": {"negative": 0, "positive": 0, "important": 0, "liked": 0, "disliked": 0, "lol": 0, "toxic": 0, "saved": 0, "comments": 0}}, {"kind": "news", "domain": "thedefiant.io", "source": {"title": "DeFi News", "region": "en", "domain": "thedefiant.io", "path": null, "type": "feed"}, "title": "Studio Ghibli Memecoins Grab Attention After OpenAI Releases Image Generation Feature", "published_at": "2025-03-27T18:35:08Z", "slug": "Studio-Ghibli-Memecoins-Grab-Attention-After-OpenAI-Releases-Image-Generation-Feature", "id": 20884755, "url": "https://cryptopanic.com/news/20884755/Studio-Ghibli-Memecoins-Grab-Attention-After-OpenAI-Releases-Image-Generation-Feature?mtm_campaign=API-OFA", "created_at": "2025-03-27T18:35:08Z", "votes": {"negative": 0, "positive": 0, "important": 0, "liked": 0, "disliked": 0, "lol": 0, "toxic": 0, "saved": 0, "comments": 0}}, {"kind": "news", "domain": "thedefiant.io", "source": {"title": "DeFi News", "region": "en", "domain": "thedefiant.io", "path": null, "type": "feed"}, "title": "U.S. Justice Department Seizes $201,400 in Cryptocurrency Linked to Hamas Terror Financing Scheme, $1.5M Laundered via Telegram", "published_at": "2025-03-27T18:35:07Z", "slug": "US-Justice-Department-Seizes-201400-in-Cryptocurrency-Linked-to-Hamas-Terror-Financing-Scheme-15M-Laundered-via-Telegram", "currencies": [{"code": "S", "title": "Sonic (prev. FTM)", "slug": "sonic-3", "url": "https://cryptopanic.com/news/sonic-3/"}], "id": 20884744, "url": "https://cryptopanic.com/news/20884744/US-Justice-Department-Seizes-201400-in-Cryptocurrency-Linked-to-Hamas-Terror-Financing-Scheme-15M-Laundered-via-Telegram?mtm_campaign=API-OFA", "created_at": "2025-03-27T18:35:07Z", "votes": {"negative": 0, "positive": 0, "important": 0, "liked": 0, "disliked": 0, "lol": 0, "toxic": 0, "saved": 0, "comments": 0}}, {"kind": "news", "domain": "thestreet.com", "source": {"title": "The Street Crypto", "region": "en", "domain": "thestreet.com", "path": null, "type": "feed"}, "title": "Pi Squared: Bridging Web2 and Web3 with Mathematical Precision", "published_at": "2025-03-27T18:34:00Z", "slug": "Pi-Squared-Bridging-Web2-and-Web3-with-Mathematical-Precision", "id": 20884812, "url": "https://cryptopanic.com/news/20884812/Pi-Squared-Bridging-Web2-and-Web3-with-Mathematical-Precision?mtm_campaign=API-OFA", "created_at": "2025-03-27T18:34:00Z", "votes": {"negative": 0, "positive": 0, "important": 0, "liked": 0, "disliked": 0, "lol": 0, "toxic": 0, "saved": 0, "comments": 0}}, {"kind": "news", "domain": "cryptopolitan.com", "source": {"title": "Feed - Cryptopolitan.Com", "region": "en", "domain": "cryptopolitan.com", "path": null, "type": "feed"}, "title": "US Justice Department seizes over $200K in cryptocurrency intended for terrorism financing", "published_at": "2025-03-27T18:30:18Z", "slug": "US-Justice-Department-seizes-over-200K-in-cryptocurrency-intended-for-terrorism-financing", "id": 20884756, "url": "https://cryptopanic.com/news/20884756/US-Justice-Department-seizes-over-200K-in-cryptocurrency-intended-for-terrorism-financing?mtm_campaign=API-OFA", "created_at": "2025-03-27T18:30:18Z", "votes": {"negative": 0, "positive": 0, "important": 0, "liked": 0, "disliked": 0, "lol": 0, "toxic": 0, "saved": 0, "comments": 0}}, {"kind": "news", "domain": "newsbtc.com", "source": {"title": "NewsBTC", "region": "en", "domain": "newsbtc.com", "path": null, "type": "feed"}, "title": "Dogecoin Set For 10x Surge? Elon Musk\u2019s Anime X Post Sparks Hype", "published_at": "2025-03-27T18:30:07Z", "slug": "Dogecoin-Set-For-10x-Surge-Elon-Musks-Anime-X-Post-Sparks-Hype", "currencies": [{"code": "DOGE", "title": "Dogecoin", "slug": "dogecoin", "url": "https://cryptopanic.com/news/dogecoin/"}, {"code": "SHIB", "title": "Shiba Inu", "slug": "shiba-inu", "url": "https://cryptopanic.com/news/shiba-inu/"}], "id": 20884708, "url": "https://cryptopanic.com/news/20884708/Dogecoin-Set-For-10x-Surge-Elon-Musks-Anime-X-Post-Sparks-Hype?mtm_campaign=API-OFA", "created_at": "2025-03-27T18:30:07Z", "votes": {"negative": 0, "positive": 0, "important": 0, "liked": 0, "disliked": 0, "lol": 0, "toxic": 0, "saved": 0, "comments": 0}}, {"kind": "news", "domain": "cointelegraph.com", "source": {"title": "CoinTelegraph", "region": "en", "domain": "cointelegraph.com", "path": null, "type": "feed"}, "title": "3 reasons why Bitcoin price can\u2019t take out the $90K resistance level", "published_at": "2025-03-27T18:19:37Z", "slug": "3-reasons-why-Bitcoin-price-cant-take-out-the-90K-resistance-level", "currencies": [{"code": "BTC", "title": "Bitcoin", "slug": "bitcoin", "url": "https://cryptopanic.com/news/bitcoin/"}], "id": 20884701, "url": "https://cryptopanic.com/news/20884701/3-reasons-why-Bitcoin-price-cant-take-out-the-90K-resistance-level?mtm_campaign=API-OFA", "created_at": "2025-03-27T18:19:37Z", "votes": {"negative": 0, "positive": 0, "important": 0, "liked": 0, "disliked": 0, "lol": 0, "toxic": 0, "saved": 0, "comments": 0}}, {"kind": "news", "domain": "feeds2.benzinga.com", "source": {"title": "Benzinga", "region": "en", "domain": "feeds2.benzinga.com", "path": null, "type": "feed"}, "title": "Bitcoin Investors Love The Possibility of US Government Investing In Crypto. For Trump, Lots of Talk, But No Action Yet.", "published_at": "2025-03-27T18:17:51Z", "slug": "Bitcoin-Investors-Love-The-Possibility-of-US-Government-Investing-In-Crypto-For-Trump-Lots-of-Talk-But-No-Action-Yet", "currencies": [{"code": "BTC", "title": "Bitcoin", "slug": "bitcoin", "url": "https://cryptopanic.com/news/bitcoin/"}, {"code": "S", "title": "Sonic (prev. FTM)", "slug": "sonic-3", "url": "https://cryptopanic.com/news/sonic-3/"}], "id": 20884735, "url": "https://cryptopanic.com/news/20884735/Bitcoin-Investors-Love-The-Possibility-of-US-Government-Investing-In-Crypto-For-Trump-Lots-of-Talk-But-No-Action-Yet?mtm_campaign=API-OFA", "created_at": "2025-03-27T18:17:51Z", "votes": {"negative": 0, "positive": 0, "important": 0, "liked": 0, "disliked": 0, "lol": 0, "toxic": 0, "saved": 0, "comments": 0}}]}